[gd_scene load_steps=6 format=2]

[ext_resource path="res://src/Objects/Coin.gd" type="Script" id=1]
[ext_resource path="res://assets/coin.png" type="Texture" id=2]

[sub_resource type="CircleShape2D" id=1]
radius = 33.8726

[sub_resource type="Animation" id=2]
resource_name = "bounce"
length = 1.2
loop = true
tracks/0/type = "value"
tracks/0/path = NodePath("Sprite:position")
tracks/0/interp = 1
tracks/0/loop_wrap = true
tracks/0/imported = false
tracks/0/enabled = true
tracks/0/keys = {
"times": PoolRealArray( 0, 0.6 ),
"transitions": PoolRealArray( 0.392292, 2 ),
"update": 0,
"values": [ Vector2( 0, 10 ), Vector2( 0, -10 ) ]
}

[sub_resource type="Animation" id=3]
resource_name = "fade_out"
length = 0.6
tracks/0/type = "value"
tracks/0/path = NodePath(".:modulate")
tracks/0/interp = 1
tracks/0/loop_wrap = true
tracks/0/imported = false
tracks/0/enabled = true
tracks/0/keys = {
"times": PoolRealArray( 0, 0.6 ),
"transitions": PoolRealArray( 1, 1 ),
"update": 0,
"values": [ Color( 1, 1, 1, 1 ), Color( 1, 1, 1, 0 ) ]
}
tracks/1/type = "method"
tracks/1/path = NodePath(".")
tracks/1/interp = 1
tracks/1/loop_wrap = true
tracks/1/imported = false
tracks/1/enabled = true
tracks/1/keys = {
"times": PoolRealArray( 0.6 ),
"transitions": PoolRealArray( 1 ),
"values": [ {
"args": [  ],
"method": "queue_free"
} ]
}

[node name="Coin" type="Area2D"]
light_mask = 4097
position = Vector2( 0, 10 )
collision_layer = 0
script = ExtResource( 1 )

[node name="Sprite" type="Sprite" parent="."]
position = Vector2( 0, 10 )
texture = ExtResource( 2 )

[node name="CollisionShape2D" type="CollisionShape2D" parent="."]
shape = SubResource( 1 )

[node name="AnimationPlayer" type="AnimationPlayer" parent="."]
autoplay = "bounce"
anims/bounce = SubResource( 2 )
anims/fade_out = SubResource( 3 )
[connection signal="body_entered" from="." to="." method="_on_body_entered"]
